Lab 3/SeqDetector1101/out.vcd
$date
  Sun Mar 10 23:44:31 2024
$end
$version
  GHDL v0
$end
$timescale
  1 fs
$end
$scope module standard $end
$upscope $end
$scope module std_logic_1164 $end
$upscope $end
$scope module seqdetector1101_tb $end
$var reg 1 ! data $end
$var reg 1 " clk $end
$var reg 1 # valid $end
$var reg 1 $ clk_out $end
$scope module uut $end
$var reg 1 % data $end
$var reg 1 & clk $end
$var reg 1 ' valid $end
$var reg 1 ( clk_out $end
$comment state is not handled $end
$var reg 1 ) output_tmp $end
$var reg 1 * clk_out_tmp $end
$scope module frqd $end
$var reg 1 + clk_in $end
$var reg 1 , clk_out $end
$var integer 32 - count $end
$var reg 1 . clk_tmp $end
$upscope $end
$upscope $end
$upscope $end
$enddefinitions $end
#0
0!
0"
0#
0$
0%
0&
0'
0(
0)
0*
0+
0,
b1 -
0.
#5000000
1"
1&
1+
#10000000
0"
0&
0+
b10 -
#15000000
1"
1&
1+
#20000000
0"
0&
0+
b11 -
#25000000
1"
1&
1+
#30000000
0"
0&
0+
b100 -
#35000000
1"
1&
1+
#40000000
0"
0&
0+
b101 -
#45000000
1"
1&
1+
#50000000
0"
0&
0+
b110 -
#55000000
1"
1&
1+
#60000000
0"
0&
0+
b111 -
#65000000
1"
1&
1+
#70000000
0"
0&
0+
b1000 -
#75000000
1"
1&
1+
#80000000
0"
0&
0+
b1001 -
#85000000
1"
1&
1+
#90000000
0"
0&
0+
b1010 -
#95000000
1"
1&
1+
#100000000
0"
0&
0+
b1011 -
#105000000
1"
1&
1+
#110000000
0"
0&
0+
b1100 -
#115000000
1"
1&
1+
#120000000
0"
0&
0+
b1101 -
#125000000
1"
1&
1+
#130000000
0"
0&
0+
b1110 -
#135000000
1"
1&
1+
#140000000
0"
0&
0+
b1111 -
#145000000
1"
1&
1+
#150000000
0"
0&
0+
b10000 -
#155000000
1"
1&
1+
#160000000
0"
0&
0+
b10001 -
#165000000
1"
1&
1+
#170000000
0"
0&
0+
b10010 -
#175000000
1"
1&
1+
#180000000
0"
0&
0+
b10011 -
#185000000
1"
1&
1+
#190000000
0"
0&
0+
b10100 -
#195000000
1"
1&
1+
#200000000
0"
0&
0+
b10101 -
#205000000
1"
1&
1+
#210000000
1!
0"
1%
0&
0+
b10110 -
#215000000
1"
1&
1+
#220000000
0"
0&
0+
b10111 -
#225000000
1"
1&
1+
#230000000
0!
0"
0%
0&
0+
b11000 -
#235000000
1"
1&
1+
#240000000
1!
0"
1%
0&
0+
b11001 -
#245000000
1"
1&
1+
#250000000
0"
0&
0+
b11010 -
#255000000
1"
1&
1+
#260000000
0!
0"
0%
0&
0+
b11011 -
#265000000
1"
1&
1+
#270000000
1!
0"
1%
0&
0+
b11100 -
#275000000
1"
1&
1+
#280000000
0"
0&
0+
b11101 -
#285000000
1"
1&
1+
#290000000
0"
0&
0+
b11110 -
#295000000
1"
1&
1+
#300000000
0"
0&
0+
b11111 -
#305000000
1"
1&
1+
#310000000
0"
0&
0+
b100000 -
#315000000
1"
1&
1+
#320000000
0"
0&
0+
b100001 -
#325000000
1"
1&
1+
#330000000
0"
0&
0+
b100010 -
#335000000
1"
1&
1+
#340000000
0"
0&
0+
b100011 -
#345000000
1"
1&
1+
#350000000
0"
0&
0+
b100100 -
#355000000
1"
1&
1+
#360000000
0"
0&
0+
b100101 -
#365000000
1"
1&
1+
#370000000
0"
0&
0+
b100110 -
#375000000
1"
1&
1+
#380000000
0"
0&
0+
b100111 -
#385000000
1"
1&
1+
#390000000
0"
0&
0+
b101000 -
#395000000
1"
1&
1+
#400000000
0"
0&
0+
b101001 -
#405000000
1"
1&
1+
#410000000
0"
0&
0+
b101010 -
#415000000
1"
1&
1+
#420000000
0"
0&
0+
b101011 -
#425000000
1"
1&
1+
#430000000
0"
0&
0+
b101100 -
#435000000
1"
1&
1+
#440000000
0"
0&
0+
b101101 -
#445000000
1"
1&
1+
#450000000
0"
0&
0+
b101110 -
#455000000
1"
1&
1+
#460000000
0"
0&
0+
b101111 -
#465000000
1"
1&
1+
#470000000
0"
0&
0+
b110000 -
#475000000
1"
1&
1+
#480000000
0"
0&
0+
b110001 -
#485000000
1"
1&
1+
#490000000
0"
0&
0+
b110010 -
#495000000
1"
1&
1+
#500000000
0"
0&
0+
b110011 -
